{"v":"5.1.10",
  "fr":30,
  "ip":0,
  "op":150,"w":705,"h":705,"nm":"timer_2","ddd":0,"assets":[{"id":"image_0","w":49,"h":31,"u":"images/","p":"img_0.png"},{"id":"image_1","w":16,"h":47,"u":"images/","p":"img_1.png"},{"id":"image_2","w":401,"h":401,"u":"images/","p":"img_2.png"},{"id":"image_3","w":445,"h":445,"u":"images/","p":"img_3.png"},{"id":"image_4","w":552,"h":552,"u":"images/","p":"img_4.png"},{"id":"image_5","w":642,"h":642,"u":"images/","p":"img_5.png"},{"id":"image_6","w":725,"h":725,"u":"images/","p":"img_6.png"}],"layers":[{"ddd":0,"ind":3,"ty":2,"nm":"green_stick","refId":"image_0","sr":1,"ks":{"o":{"a":0,"k":100,"ix":11},"r":{"a":1,"k":[{"i":{"x":[0.833],"y":[0.833]},"o":{"x":[0.167],"y":[0.167]},"n":["0p833_0p833_0p167_0p167"],"t":0,"s":[293],"e":[201.49]},{"i":{"x":[0.833],"y":[0.833]},"o":{"x":[0.167],"y":[0.167]},"n":["0p833_0p833_0p167_0p167"],"t":15,"s":[201.49],"e":[111.398]},{"i":{"x":[0.833],"y":[0.833]},"o":{"x":[0.167],"y":[0.167]},"n":["0p833_0p833_0p167_0p167"],"t":30,"s":[111.398],"e":[21]},{"i":{"x":[0.833],"y":[0.833]},"o":{"x":[0.167],"y":[0.167]},"n":["0p833_0p833_0p167_0p167"],"t":45,"s":[21],"e":[-67]},{"t":60}],"ix":10},"p":{"a":1,"k":[{"i":{"x":0.833,"y":0.833},"o":{"x":0.167,"y":0.167},"n":"0p833_0p833_0p167_0p167","t":0,"s":[352.617,23.26,0],"e":[24.699,344.179,0],"to":[-179.978530883789,-1,0],"ti":[0,-172.978530883789,0]},{"i":{"x":0.833,"y":0.833},"o":{"x":0.167,"y":0.167},"n":"0p833_0p833_0p167_0p167","t":15,"s":[24.699,344.179,0],"e":[353.117,682.597,0],"to":[0,192.978637695313,0],"ti":[-184.978530883789,3,0]},{"i":{"x":0.833,"y":0.833},"o":{"x":0.167,"y":0.167},"n":"0p833_0p833_0p167_0p167","t":30,"s":[353.117,682.597,0],"e":[680.536,348.179,0],"to":[178.978637695313,-1,0],"ti":[0,192.978637695313,0]},{"i":{"x":0.833,"y":0.833},"o":{"x":0.167,"y":0.167},"n":"0p833_0p833_0p167_0p167","t":45,"s":[680.536,348.179,0],"e":[352.867,23.26,0],"to":[-2,-167.978530883789,0],"ti":[188.978637695313,0,0]},{"t":60}],"ix":2},"a":{"a":0,"k":[24.07,15.178,0],"ix":1},"s":{"a":0,"k":[100,100,100],"ix":6}},"ao":0,"ip":0,"op":150,"st":0,"bm":0},{"ddd":0,"ind":4,"ty":2,"nm":"blue_stick","refId":"image_1","sr":1,"ks":{"o":{"a":0,"k":100,"ix":11},"r":{"a":1,"k":[{"i":{"x":[0.833],"y":[0.833]},"o":{"x":[0.167],"y":[0.167]},"n":["0p833_0p833_0p167_0p167"],"t":0,"s":[1],"e":[0]},{"i":{"x":[0.833],"y":[0.833]},"o":{"x":[0.167],"y":[0.167]},"n":["0p833_0p833_0p167_0p167"],"t":10,"s":[0],"e":[89]},{"i":{"x":[0.833],"y":[0.833]},"o":{"x":[0.167],"y":[0.167]},"n":["0p833_0p833_0p167_0p167"],"t":25,"s":[89],"e":[180]},{"i":{"x":[0.833],"y":[0.833]},"o":{"x":[0.167],"y":[0.167]},"n":["0p833_0p833_0p167_0p167"],"t":40,"s":[180],"e":[271]},{"i":{"x":[0.833],"y":[0.833]},"o":{"x":[0.167],"y":[0.167]},"n":["0p833_0p833_0p167_0p167"],"t":55,"s":[271],"e":[364]},{"t":70}],"ix":10},"p":{"a":1,"k":[{"i":{"x":0.833,"y":0.833},"o":{"x":0.167,"y":0.167},"n":"0p833_0p833_0p167_0p167","t":10,"s":[352.764,23.385,0],"e":[680.5,348.2,0],"to":[154.909729003906,0,0],"ti":[-5,-215.590270996094,0]},{"i":{"x":0.833,"y":0.833},"o":{"x":0.167,"y":0.167},"n":"0p833_0p833_0p167_0p167","t":25,"s":[680.5,348.2,0],"e":[352.764,682.273,0],"to":[2,158.590362548828,0],"ti":[218.909729003906,-3.75,0]},{"i":{"x":0.833,"y":0.833},"o":{"x":0.167,"y":0.167},"n":"0p833_0p833_0p167_0p167","t":40,"s":[352.764,682.273,0],"e":[21.7,344.2,0],"to":[-201.409912109375,-2,0],"ti":[0,167.590362548828,0]},{"i":{"x":0.833,"y":0.833},"o":{"x":0.167,"y":0.167},"n":"0p833_0p833_0p167_0p167","t":55,"s":[21.7,344.2,0],"e":[352.764,23.385,0],"to":[1,-175.590270996094,0],"ti":[-169.409912109375,-1,0]},{"t":70}],"ix":2},"a":{"a":0,"k":[7.75,23.25,0],"ix":1},"s":{"a":0,"k":[100,100,100],"ix":6}},"ao":0,"ip":0,"op":150,"st":0,"bm":0},{"ddd":0,"ind":5,"ty":2,"nm":"circles_in_middle","refId":"image_2","sr":1,"ks":{"o":{"a":0,"k":100,"ix":11},"r":{"a":0,"k":0,"ix":10},"p":{"a":0,"k":[352.875,352.376,0],"ix":2},"a":{"a":0,"k":[200.25,200.25,0],"ix":1},"s":{"a":0,"k":[100,100,100],"ix":6}},"ao":0,"ip":0,"op":150,"st":0,"bm":0},{"ddd":0,"ind":6,"ty":2,"nm":"gradient","refId":"image_3","sr":1,"ks":{"o":{"a":0,"k":100,"ix":11},"r":{"a":0,"k":0,"ix":10},"p":{"a":0,"k":[352.919,352.297,0],"ix":2},"a":{"a":0,"k":[222.228,222.228,0],"ix":1},"s":{"a":0,"k":[100,100,100],"ix":6}},"ao":0,"ip":0,"op":150,"st":0,"bm":0},{"ddd":0,"ind":7,"ty":2,"nm":"minutes","refId":"image_4","sr":1,"ks":{"o":{"a":0,"k":25,"ix":11},"r":{"a":0,"k":0,"ix":10},"p":{"a":0,"k":[352.875,352.376,0],"ix":2},"a":{"a":0,"k":[275.751,275.751,0],"ix":1},"s":{"a":0,"k":[100,100,100],"ix":6}},"ao":0,"ip":0,"op":150,"st":0,"bm":0},{"ddd":0,"ind":8,"ty":2,"nm":"circle_inside","refId":"image_5","sr":1,"ks":{"o":{"a":0,"k":25,"ix":11},"r":{"a":0,"k":0,"ix":10},"p":{"a":0,"k":[352.5,352.5,0],"ix":2},"a":{"a":0,"k":[321,321,0],"ix":1},"s":{"a":0,"k":[100,100,100],"ix":6}},"ao":0,"ip":0,"op":150,"st":0,"bm":0},{"ddd":0,"ind":9,"ty":2,"nm":"circle_outside","refId":"image_6","sr":1,"ks":{"o":{"a":0,"k":25,"ix":11},"r":{"a":0,"k":0,"ix":10},"p":{"a":0,"k":[352.5,352.5,0],"ix":2},"a":{"a":0,"k":[362.5,362.5,0],"ix":1},"s":{"a":0,"k":[100,100,100],"ix":6}},"ao":0,"ip":0,"op":150,"st":0,"bm":0}],"markers":[]}
